%YAML 1.1
%TAG !u! tag:unity3d.com,2011:
--- !u!114 &11400000
MonoBehaviour:
  m_ObjectHideFlags: 0
  m_CorrespondingSourceObject: {fileID: 0}
  m_PrefabInstance: {fileID: 0}
  m_PrefabAsset: {fileID: 0}
  m_GameObject: {fileID: 0}
  m_Enabled: 1
  m_EditorHideFlags: 0
  m_Script: {fileID: 11500000, guid: faf7db05d259ffb47b2b158a2e462d2a, type: 3}
  m_Name: ColorPalette-Default
  m_EditorClassIdentifier: 
  current: {r: 0.352, g: 0.533, b: 0, a: 1}
  colors:
  - {r: 1, g: 1, b: 1, a: 1}
  - {r: 0.866, g: 0.866, b: 0.866, a: 1}
  - {r: 0.733, g: 0.733, b: 0.733, a: 1}
  - {r: 0.6, g: 0.6, b: 0.6, a: 1}
  - {r: 0.466, g: 0.466, b: 0.466, a: 1}
  - {r: 0.333, g: 0.333, b: 0.333, a: 1}
  - {r: 0.2, g: 0.2, b: 0.2, a: 1}
  - {r: 0, g: 0, b: 0, a: 1}
  - {r: 1, g: 0, b: 0, a: 1}
  - {r: 0, g: 1, b: 0, a: 1}
  - {r: 0, g: 0, b: 1, a: 1}
  - {r: 0.09, g: 0.27, b: 0.607, a: 1}
  - {r: 0.929, g: 0.929, b: 0, a: 1}
  - {r: 0.247, g: 0.8, b: 0, a: 1}
  - {r: 0.827, g: 0, b: 0, a: 1}
  - {r: 0.929, g: 0.933, b: 0.725, a: 1}
  - {r: 0.352, g: 0.533, b: 0, a: 1}
  - {r: 0.976, g: 0.729, b: 0, a: 1}
  - {r: 0.258, g: 0.737, b: 1, a: 1}
  - {r: 0.3962264, g: 0.24072623, b: 0.24920805, a: 1}
  - {r: 0.4339623, g: 0.29231045, b: 0.3006429, a: 1}
  - {r: 0.509434, g: 0.30950516, b: 0.32061237, a: 1}
  - {r: 0.3246393, g: 0.49056602, b: 0, a: 1}
  - {r: 0.26226217, g: 0.3679245, b: 0.05345317, a: 1}
