%YAML 1.1
%TAG !u! tag:unity3d.com,2011:
--- !u!1 &3368812667143570328
GameObject:
  m_ObjectHideFlags: 0
  m_CorrespondingSourceObject: {fileID: 0}
  m_PrefabInstance: {fileID: 0}
  m_PrefabAsset: {fileID: 0}
  serializedVersion: 6
  m_Component:
  - component: {fileID: 2705464810553579810}
  m_Layer: 0
  m_Name: FireKing
  m_TagString: Untagged
  m_Icon: {fileID: 0}
  m_NavMeshLayer: 0
  m_StaticEditorFlags: 0
  m_IsActive: 1
--- !u!4 &2705464810553579810
Transform:
  m_ObjectHideFlags: 0
  m_CorrespondingSourceObject: {fileID: 0}
  m_PrefabInstance: {fileID: 0}
  m_PrefabAsset: {fileID: 0}
  m_GameObject: {fileID: 3368812667143570328}
  m_LocalRotation: {x: 0.002048379, y: -0.9016588, z: -0.004271147, w: 0.43242234}
  m_LocalPosition: {x: 89.69, y: -0.65, z: 65.93}
  m_LocalScale: {x: 0.67295, y: 0.67295, z: 0.67295}
  m_ConstrainProportionsScale: 0
  m_Children: []
  m_Father: {fileID: 0}
  m_RootOrder: 0
  m_LocalEulerAnglesHint: {x: -0.34, y: -128.755, z: -0.423}
